%YAML 1.1
%TAG !u! tag:unity3d.com,2011:
--- !u!114 &11400000
MonoBehaviour:
  m_ObjectHideFlags: 0
  m_CorrespondingSourceObject: {fileID: 0}
  m_PrefabInstance: {fileID: 0}
  m_PrefabAsset: {fileID: 0}
  m_GameObject: {fileID: 0}
  m_Enabled: 1
  m_EditorHideFlags: 0
  m_Script: {fileID: 11500000, guid: 083cf3970ef3a435fa54370c4f4b73b1, type: 3}
  m_Name: Hints
  m_EditorClassIdentifier: 
  m_lines:
  - Hitting a shield will eventually break it
  - A shield blocks full damage until it breaks
  - A helmet blocks some of the damage from overhead attacks
  - Blocking an attack gives you time advantage
  - Overhead attacks are slower but may ignore the shield
  - A knife has the shortest range but is the fastest weapon
  - Use a spear for longer attack range
