%YAML 1.1
%TAG !u! tag:unity3d.com,2011:
--- !u!687078895 &4343727234628468602
SpriteAtlas:
  m_ObjectHideFlags: 0
  m_CorrespondingSourceObject: {fileID: 0}
  m_PrefabInstance: {fileID: 0}
  m_PrefabAsset: {fileID: 0}
  m_Name: VFX
  m_EditorData:
    serializedVersion: 2
    textureSettings:
      serializedVersion: 2
      anisoLevel: 1
      compressionQuality: 50
      maxTextureSize: 2048
      textureCompression: 0
      filterMode: 1
      generateMipMaps: 0
      readable: 0
      crunchedCompression: 0
      sRGB: 1
    platformSettings: []
    packingSettings:
      serializedVersion: 2
      padding: 4
      blockOffset: 1
      allowAlphaSplitting: 0
      enableRotation: 1
      enableTightPacking: 0
    secondaryTextureSettings: {}
    variantMultiplier: 1
    packables:
    - {fileID: 102900000, guid: 2654200a5daef4b86865981a2c0c6cb0, type: 3}
    bindAsDefault: 1
    isAtlasV2: 0
    cachedData: {fileID: 0}
  m_MasterAtlas: {fileID: 0}
  m_PackedSprites:
  - {fileID: 21300000, guid: d4cce9e10fab14e03ba1b31a289ce63d, type: 3}
  - {fileID: 21300000, guid: 804731b2e869442a58f30b909ab6fe86, type: 3}
  - {fileID: 21300000, guid: 79a8a4738d1b7484984b6e3b5ff4b763, type: 3}
  - {fileID: 21300000, guid: ea57c6f4704e64255a809be4528b9baa, type: 3}
  - {fileID: 21300000, guid: 3f3380b87750c4f5d9d7a13a6f68bfdb, type: 3}
  - {fileID: 21300000, guid: ad936abe5b6844299b4fad4ca5e33876, type: 3}
  - {fileID: 21300000, guid: abe2441f24b6a4b0eb2406277ea6482b, type: 3}
  - {fileID: 21300000, guid: a51cbc3fb9c784ecdb48d13d4199aec4, type: 3}
  m_PackedSpriteNamesToIndex:
  - vfx_0001s_0002_blood3
  - Footprint2
  - vfx_0002s_0001_hit2
  - vfx_0001s_0001_blood2
  - vfx_0002s_0000_hit1
  - vfx_0001s_0000_blood1
  - Footprint1
  - vfx_0002s_0002_hit3
  m_RenderDataMap: {}
  m_Tag: VFX
  m_IsVariant: 0
