%YAML 1.1
%TAG !u! tag:unity3d.com,2011:
--- !u!114 &11400000
MonoBehaviour:
  m_ObjectHideFlags: 0
  m_CorrespondingSourceObject: {fileID: 0}
  m_PrefabInstance: {fileID: 0}
  m_PrefabAsset: {fileID: 0}
  m_GameObject: {fileID: 0}
  m_Enabled: 1
  m_EditorHideFlags: 0
  m_Script: {fileID: 11500000, guid: 69f0601772030468a9b66bbe4f469240, type: 3}
  m_Name: Shield1SettingsList
  m_EditorClassIdentifier: 
  m_settingsList:
  - mainColour: {r: 0.5686275, g: 0.47058824, b: 0.38431373, a: 1}
  - mainColour: {r: 0.62352943, g: 0.63529414, b: 0.5411765, a: 1}
  - mainColour: {r: 0.56078434, g: 0.6627451, b: 0.53333336, a: 1}
