%YAML 1.1
%TAG !u! tag:unity3d.com,2011:
--- !u!114 &11400000
MonoBehaviour:
  m_ObjectHideFlags: 0
  m_CorrespondingSourceObject: {fileID: 0}
  m_PrefabInstance: {fileID: 0}
  m_PrefabAsset: {fileID: 0}
  m_GameObject: {fileID: 0}
  m_Enabled: 1
  m_EditorHideFlags: 0
  m_Script: {fileID: 11500000, guid: a17c537cdeaeb4fbfbc6d4c18af2ddde, type: 3}
  m_Name: AISettings
  m_EditorClassIdentifier: 
  m_FSMTickTime: 0.1
  m_enableUIDebug: 0
  m_timeToWarCry: 4
  m_warCryIdleCooldown: 14
  m_attackTimer: 0.4
  m_overheadAttackChance: 0.4
  m_overheadAttackBlockChance: 0.7
  m_predictionTime: 0.4
